# Blender v2.69 (sub 0) OBJ File: ''
# www.blender.org
mtllib icosphere.mtl
o Icosphere
v 0.016267 -1.017342 -0.003319
v 0.739875 -0.464562 0.522407
v -0.260121 -0.464562 0.847331
v -0.878159 -0.464558 -0.003319
v -0.260121 -0.464562 -0.853968
v 0.739875 -0.464562 -0.529044
v 0.292655 0.429878 0.847331
v -0.707340 0.429877 0.522407
v -0.707340 0.429877 -0.529044
v 0.292655 0.429878 -0.853968
v 0.910694 0.429873 -0.003319
v 0.016267 0.982658 -0.003319
v -0.146188 -0.867997 0.496677
v 0.441590 -0.867996 0.305693
v 0.279136 -0.543080 0.805693
v 0.866915 -0.543078 -0.003319
v 0.441590 -0.867996 -0.312330
v -0.509462 -0.867994 -0.003319
v -0.671922 -0.543078 0.496678
v -0.146188 -0.867997 -0.503314
v -0.671922 -0.543078 -0.503315
v 0.279136 -0.543080 -0.812330
v 0.967325 -0.017342 0.305694
v 0.967325 -0.017342 -0.312331
v 0.016267 -0.017342 0.996681
v 0.604053 -0.017342 0.805698
v -0.934790 -0.017342 0.305694
v -0.571518 -0.017342 0.805698
v -0.571518 -0.017342 -0.812335
v -0.934790 -0.017342 -0.312331
v 0.604053 -0.017342 -0.812335
v 0.016267 -0.017342 -1.003318
v 0.704457 0.508394 0.496678
v -0.246601 0.508395 0.805693
v -0.834380 0.508394 -0.003319
v -0.246601 0.508395 -0.812330
v 0.704457 0.508394 -0.503315
v 0.178723 0.833312 0.496677
v 0.541997 0.833309 -0.003319
v -0.409055 0.833312 0.305693
v -0.409055 0.833312 -0.312330
v 0.178723 0.833312 -0.503314
usemtl None
s off
f 1 14 13
f 2 14 16
f 1 13 18
f 1 18 20
f 1 20 17
f 2 16 23
f 3 15 25
f 4 19 27
f 5 21 29
f 6 22 31
f 2 23 26
f 3 25 28
f 4 27 30
f 5 29 32
f 6 31 24
f 7 33 38
f 8 34 40
f 9 35 41
f 10 36 42
f 11 37 39
f 13 15 3
f 13 14 15
f 14 2 15
f 16 17 6
f 16 14 17
f 14 1 17
f 18 19 4
f 18 13 19
f 13 3 19
f 20 21 5
f 20 18 21
f 18 4 21
f 17 22 6
f 17 20 22
f 20 5 22
f 23 24 11
f 23 16 24
f 16 6 24
f 25 26 7
f 25 15 26
f 15 2 26
f 27 28 8
f 27 19 28
f 19 3 28
f 29 30 9
f 29 21 30
f 21 4 30
f 31 32 10
f 31 22 32
f 22 5 32
f 26 33 7
f 26 23 33
f 23 11 33
f 28 34 8
f 28 25 34
f 25 7 34
f 30 35 9
f 30 27 35
f 27 8 35
f 32 36 10
f 32 29 36
f 29 9 36
f 24 37 11
f 24 31 37
f 31 10 37
f 38 39 12
f 38 33 39
f 33 11 39
f 40 38 12
f 40 34 38
f 34 7 38
f 41 40 12
f 41 35 40
f 35 8 40
f 42 41 12
f 42 36 41
f 36 9 41
f 39 42 12
f 39 37 42
f 37 10 42
